21:27:46 - Pocet predmetu: 30
21:27:52 - Inicializace faktu - OK
21:27:52 - IBS
21:27:52 - IDS
21:27:52 - IFY
21:27:52 - IJC
21:27:52 - IKR
21:27:52 - IMA
21:27:52 - INC
21:27:52 - IOS
21:27:52 - IPK
21:27:52 - IPP
21:27:52 - IPR
21:27:52 - ISJ
21:27:52 - ITP
21:27:52 - ITS
21:27:52 - IZG
21:27:52 - IZU
21:27:52 - AGS
21:27:52 - ARC
21:27:52 - BIF
21:27:52 - BIN
21:27:52 - EVO
21:27:52 - FLP
21:27:52 - FYO
21:27:52 - GIS
21:27:52 - GJA
21:27:52 - KKO
21:27:53 - KRY
21:27:53 - MPR
21:27:53 - MUL
21:27:53 - NAV
21:27:53 - Inicializace promennych - OK
21:27:53 - IBS
21:27:53 - IBS
21:27:53 - IBS
21:27:54 - IDS
21:27:54 - IDS
21:27:55 - IDS
21:27:56 - IFY
21:27:56 - IFY
21:27:57 - IFY
21:27:57 - IJC
21:27:58 - IJC
21:27:59 - IJC
21:27:60 - IKR
21:28:0 - IKR
21:28:1 - IKR
21:28:2 - IMA
21:28:3 - IMA
21:28:4 - IMA
21:28:5 - INC
21:28:6 - INC
21:28:7 - INC
21:28:8 - IOS
21:28:9 - IOS
21:28:10 - IOS
21:28:11 - IPK
21:28:12 - IPK
21:28:14 - IPK
21:28:16 - IPP
21:28:18 - IPP
21:28:20 - IPP
21:28:21 - IPR
21:28:24 - IPR
21:28:26 - IPR
21:28:28 - ISJ
21:28:31 - ISJ
21:28:32 - ISJ
21:28:34 - ITP
21:28:36 - ITP
21:28:37 - ITP
21:28:39 - ITS
21:28:41 - ITS
21:28:42 - ITS
21:28:44 - IZG
21:28:46 - IZG
21:28:49 - IZG
21:28:51 - IZU
21:28:52 - IZU
21:28:53 - IZU
21:28:54 - AGS
21:28:55 - AGS
21:28:56 - AGS
21:28:58 - ARC
21:28:59 - ARC
21:29:1 - ARC
21:29:2 - BIF
21:29:3 - BIF
21:29:5 - BIF
21:29:7 - BIN
21:29:8 - BIN
21:29:10 - BIN
21:29:12 - EVO
21:29:14 - EVO
21:29:16 - EVO
21:29:18 - FLP
21:29:20 - FLP
21:29:22 - FLP
21:29:23 - FYO
21:29:26 - FYO
21:29:28 - FYO
21:29:30 - GIS
21:29:33 - GIS
21:29:35 - GIS
21:29:38 - GJA
21:29:40 - GJA
21:29:42 - GJA
21:29:43 - KKO
21:29:45 - KKO
21:29:47 - KKO
21:29:48 - KRY
21:29:50 - KRY
21:29:52 - KRY
21:29:54 - MPR
21:29:56 - MPR
21:29:58 - MPR
21:29:59 - MUL
21:30:2 - MUL
21:30:4 - MUL
21:30:6 - NAV
21:30:7 - NAV
21:30:10 - NAV
21:30:12 - Vazby mezi zkouskami - OK
21:30:12 - Hledani reseni zacalo
21:30:44 - Reseni nalezeno
Rozvrh IKR 1. termin: 2015-05-11  8:00-10:00
Rozvrh IOS 1. termin: 2015-05-11  8:00-13:00
Rozvrh IPR 1. termin: 2015-05-11 13:00-16:00
Rozvrh ISJ 1. termin: 2015-05-11  8:00-11:00
Rozvrh AGS 1. termin: 2015-05-11 13:00-15:00
Rozvrh BIF 1. termin: 2015-05-11  8:00-10:00
Rozvrh GJA 1. termin: 2015-05-11 11:00-13:00
Rozvrh MPR 1. termin: 2015-05-11  8:00-11:00
Rozvrh IBS 1. termin: 2015-05-12  8:00-10:00
Rozvrh IFY 1. termin: 2015-05-12  9:00-11:00
Rozvrh IZU 1. termin: 2015-05-12 11:00-14:00
Rozvrh ARC 1. termin: 2015-05-12  8:00-10:00
Rozvrh GIS 1. termin: 2015-05-12 10:00-12:00
Rozvrh IJC 1. termin: 2015-05-14  8:00-10:00
Rozvrh INC 1. termin: 2015-05-14  8:00-12:00
Rozvrh ITP 1. termin: 2015-05-14  8:00-10:00
Rozvrh ITS 1. termin: 2015-05-14 10:00-12:00
Rozvrh BIN 1. termin: 2015-05-14  8:00-10:00
Rozvrh KKO 1. termin: 2015-05-14 10:00-12:00
Rozvrh IDS 1. termin: 2015-05-15  8:00-11:00
Rozvrh IZG 1. termin: 2015-05-15 11:00-13:00
Rozvrh FLP 1. termin: 2015-05-15  8:00-11:00
Rozvrh IMA 1. termin: 2015-05-18 12:00-15:00
Rozvrh IPP 1. termin: 2015-05-18  8:00-11:00
Rozvrh IPR 2. termin: 2015-05-18 15:00-18:00
Rozvrh AGS 2. termin: 2015-05-18  8:00-10:00
Rozvrh KRY 1. termin: 2015-05-18 10:00-12:00
Rozvrh MUL 1. termin: 2015-05-18  8:00-10:00
Rozvrh IZU 2. termin: 2015-05-19  8:00-11:00
Rozvrh ARC 2. termin: 2015-05-19  8:00-10:00
Rozvrh FYO 1. termin: 2015-05-19 10:00-12:00
Rozvrh IBS 2. termin: 2015-05-20  8:00-10:00
Rozvrh IPK 1. termin: 2015-05-20 10:00-12:00
Rozvrh EVO 1. termin: 2015-05-20  8:00-10:00
Rozvrh MPR 2. termin: 2015-05-20  8:00-11:00
Rozvrh IJC 2. termin: 2015-05-21  8:00-10:00
Rozvrh IKR 2. termin: 2015-05-21  8:00-10:00
Rozvrh INC 2. termin: 2015-05-21  8:00-12:00
Rozvrh BIF 2. termin: 2015-05-21  8:00-10:00
Rozvrh KKO 2. termin: 2015-05-21 10:00-12:00
Rozvrh IDS 2. termin: 2015-05-22  8:00-11:00
Rozvrh FLP 2. termin: 2015-05-22  8:00-11:00
Rozvrh IPP 2. termin: 2015-05-25  8:00-11:00
Rozvrh IPR 3. termin: 2015-05-25 11:00-14:00
Rozvrh BIN 2. termin: 2015-05-25  8:00-10:00
Rozvrh KRY 2. termin: 2015-05-25 10:00-12:00
Rozvrh MUL 2. termin: 2015-05-25  8:00-10:00
Rozvrh ISJ 2. termin: 2015-05-26  8:00-11:00
Rozvrh ARC 3. termin: 2015-05-26  8:00-10:00
Rozvrh IBS 3. termin: 2015-05-27  8:00-10:00
Rozvrh IPK 2. termin: 2015-05-27 10:00-12:00
Rozvrh EVO 2. termin: 2015-05-27  8:00-10:00
Rozvrh MPR 3. termin: 2015-05-27  8:00-11:00
Rozvrh IJC 3. termin: 2015-05-28  8:00-10:00
Rozvrh IKR 3. termin: 2015-05-28  8:00-10:00
Rozvrh INC 3. termin: 2015-05-28  8:00-12:00
Rozvrh BIF 3. termin: 2015-05-28  8:00-10:00
Rozvrh FYO 2. termin: 2015-05-28 10:00-12:00
Rozvrh NAV 1. termin: 2015-05-28  8:00-10:00
Rozvrh IDS 3. termin: 2015-05-29  8:00-11:00
Rozvrh FLP 3. termin: 2015-05-29  8:00-11:00
Rozvrh IMA 2. termin: 2015-06-01 12:00-15:00
Rozvrh IPP 3. termin: 2015-06-01  8:00-11:00
Rozvrh AGS 3. termin: 2015-06-01  8:00-10:00
Rozvrh MUL 3. termin: 2015-06-01  8:00-10:00
Rozvrh IOS 2. termin: 2015-06-02  8:00-13:00
Rozvrh ISJ 3. termin: 2015-06-02  8:00-11:00
Rozvrh BIN 3. termin: 2015-06-02  8:00-10:00
Rozvrh IPK 3. termin: 2015-06-03 11:00-13:00
Rozvrh IZU 3. termin: 2015-06-03  8:00-11:00
Rozvrh EVO 3. termin: 2015-06-03  8:00-10:00
Rozvrh IFY 2. termin: 2015-06-04  9:00-11:00
Rozvrh ITP 2. termin: 2015-06-04  8:00-10:00
Rozvrh GIS 2. termin: 2015-06-04  8:00-10:00
Rozvrh NAV 2. termin: 2015-06-04  8:00-10:00
Rozvrh ITS 2. termin: 2015-06-05  8:00-10:00
Rozvrh IZG 2. termin: 2015-06-05 10:00-12:00
Rozvrh GJA 2. termin: 2015-06-05  8:00-10:00
Rozvrh KKO 3. termin: 2015-06-08  8:00-10:00
Rozvrh FYO 3. termin: 2015-06-09 10:00-12:00
Rozvrh KRY 3. termin: 2015-06-09  8:00-10:00
Rozvrh IMA 3. termin: 2015-06-10 12:00-15:00
Rozvrh IOS 3. termin: 2015-06-11  8:00-13:00
Rozvrh ITP 3. termin: 2015-06-11 13:00-15:00
Rozvrh GIS 3. termin: 2015-06-11  8:00-10:00
Rozvrh NAV 3. termin: 2015-06-11  8:00-10:00
Rozvrh IFY 3. termin: 2015-06-12  9:00-11:00
Rozvrh ITS 3. termin: 2015-06-12  8:00-10:00
Rozvrh IZG 3. termin: 2015-06-12 11:00-13:00
Rozvrh GJA 3. termin: 2015-06-12  8:00-10:00
21:30:44 - Celkova penalizace: 30
