10:2:26 - Pocet predmetu: 38
10:2:31 - Inicializace faktu - OK
10:2:31 - IBS
10:2:31 - IDS
10:2:31 - IFY
10:2:31 - IJC
10:2:31 - IKR
10:2:31 - IMA
10:2:31 - INC
10:2:31 - IOS
10:2:31 - IPK
10:2:31 - IPP
10:2:31 - IPR
10:2:31 - ISJ
10:2:31 - ITP
10:2:31 - ITS
10:2:31 - IZG
10:2:31 - IZU
10:2:31 - AGS
10:2:31 - ARC
10:2:31 - BIF
10:2:31 - BIN
10:2:31 - EVO
10:2:31 - FLP
10:2:31 - FYO
10:2:31 - GIS
10:2:31 - GJA
10:2:31 - KKO
10:2:31 - KRY
10:2:31 - MPR
10:2:31 - MUL
10:2:31 - NAV
10:2:31 - NSB
10:2:31 - PDS
10:2:31 - PES
10:2:31 - PIS
10:2:31 - POS
10:2:31 - SNT
10:2:31 - SPP
10:2:31 - VNV
10:2:31 - Inicializace promennych - OK
10:2:31 - IBS
10:2:31 - IBS
10:2:32 - IBS
10:2:32 - IDS
10:2:33 - IDS
10:2:33 - IDS
10:2:34 - IFY
10:2:34 - IFY
10:2:35 - IFY
10:2:35 - IJC
10:2:36 - IJC
10:2:37 - IJC
10:2:37 - IKR
10:2:38 - IKR
10:2:39 - IKR
10:2:40 - IMA
10:2:41 - IMA
10:2:42 - IMA
10:2:43 - INC
10:2:44 - INC
10:2:46 - INC
10:2:47 - IOS
10:2:48 - IOS
10:2:50 - IOS
10:2:51 - IPK
10:2:53 - IPK
10:2:55 - IPK
10:2:56 - IPP
10:2:58 - IPP
10:2:59 - IPP
10:3:0 - IPR
10:3:1 - IPR
10:3:3 - IPR
10:3:5 - ISJ
10:3:6 - ISJ
10:3:8 - ISJ
10:3:9 - ITP
10:3:10 - ITP
10:3:11 - ITP
10:3:12 - ITS
10:3:13 - ITS
10:3:14 - ITS
10:3:15 - IZG
10:3:16 - IZG
10:3:18 - IZG
10:3:19 - IZU
10:3:20 - IZU
10:3:22 - IZU
10:3:23 - AGS
10:3:24 - AGS
10:3:26 - AGS
10:3:28 - ARC
10:3:30 - ARC
10:3:31 - ARC
10:3:33 - BIF
10:3:35 - BIF
10:3:36 - BIF
10:3:38 - BIN
10:3:39 - BIN
10:3:40 - BIN
10:3:41 - EVO
10:3:43 - EVO
10:3:44 - EVO
10:3:46 - FLP
10:3:47 - FLP
10:3:49 - FLP
10:3:51 - FYO
10:3:52 - FYO
10:3:53 - FYO
10:3:55 - GIS
10:3:57 - GIS
10:3:59 - GIS
10:4:1 - GJA
10:4:2 - GJA
10:4:4 - GJA
10:4:5 - KKO
10:4:6 - KKO
10:4:6 - KKO
10:4:7 - KRY
10:4:8 - KRY
10:4:9 - KRY
10:4:10 - MPR
10:4:11 - MPR
10:4:12 - MPR
10:4:13 - MUL
10:4:15 - MUL
10:4:15 - MUL
10:4:16 - NAV
10:4:18 - NAV
10:4:19 - NAV
10:4:20 - NSB
10:4:21 - NSB
10:4:23 - NSB
10:4:24 - PDS
10:4:25 - PDS
10:4:27 - PDS
10:4:28 - PES
10:4:29 - PES
10:4:31 - PES
10:4:32 - PIS
10:4:34 - PIS
10:4:36 - PIS
10:4:37 - POS
10:4:39 - POS
10:4:41 - POS
10:4:43 - SNT
10:4:44 - SNT
10:4:46 - SNT
10:4:48 - SPP
10:4:50 - SPP
10:4:52 - SPP
10:4:53 - VNV
10:4:54 - VNV
10:4:55 - VNV
10:4:56 - Vazby mezi zkouskami - OK
10:4:56 - Hledani reseni zacalo
10:5:27 - Reseni nalezeno
Rozvrh IKR 1. termin: 2015-05-11  8:00-10:00
Rozvrh IOS 1. termin: 2015-05-11  8:00-13:00
Rozvrh IPR 1. termin: 2015-05-11 13:00-16:00
Rozvrh ISJ 1. termin: 2015-05-11  8:00-11:00
Rozvrh AGS 1. termin: 2015-05-11 13:00-15:00
Rozvrh GJA 1. termin: 2015-05-11 11:00-13:00
Rozvrh MPR 1. termin: 2015-05-11  8:00-11:00
Rozvrh NAV 1. termin: 2015-05-11  8:00-10:00
Rozvrh PES 1. termin: 2015-05-11  8:00-11:00
Rozvrh IBS 1. termin: 2015-05-12  8:00-10:00
Rozvrh IFY 1. termin: 2015-05-12  9:00-11:00
Rozvrh IZU 1. termin: 2015-05-12 11:00-14:00
Rozvrh PDS 1. termin: 2015-05-12  8:00-11:00
Rozvrh SNT 1. termin: 2015-05-12 11:00-13:00
Rozvrh IJC 1. termin: 2015-05-14  8:00-10:00
Rozvrh INC 1. termin: 2015-05-14  8:00-12:00
Rozvrh ITP 1. termin: 2015-05-14  8:00-10:00
Rozvrh ITS 1. termin: 2015-05-14 10:00-12:00
Rozvrh BIF 1. termin: 2015-05-14  8:00-10:00
Rozvrh POS 1. termin: 2015-05-14  8:00-11:00
Rozvrh VNV 1. termin: 2015-05-14  8:00-10:00
Rozvrh IDS 1. termin: 2015-05-15  8:00-11:00
Rozvrh IZG 1. termin: 2015-05-15 11:00-13:00
Rozvrh FLP 1. termin: 2015-05-15  8:00-11:00
Rozvrh IMA 1. termin: 2015-05-18 12:00-15:00
Rozvrh IPP 1. termin: 2015-05-18  8:00-11:00
Rozvrh IPR 2. termin: 2015-05-18 15:00-18:00
Rozvrh AGS 2. termin: 2015-05-18  8:00-10:00
Rozvrh GIS 1. termin: 2015-05-18 10:00-12:00
Rozvrh MUL 1. termin: 2015-05-18  8:00-10:00
Rozvrh NSB 1. termin: 2015-05-18  8:00-10:00
Rozvrh PIS 1. termin: 2015-05-18 10:00-12:00
Rozvrh IZU 2. termin: 2015-05-19  8:00-11:00
Rozvrh FYO 1. termin: 2015-05-19 10:00-12:00
Rozvrh NAV 2. termin: 2015-05-19  8:00-10:00
Rozvrh PES 2. termin: 2015-05-19  8:00-11:00
Rozvrh IBS 2. termin: 2015-05-20  8:00-10:00
Rozvrh IPK 1. termin: 2015-05-20 10:00-12:00
Rozvrh BIN 1. termin: 2015-05-20  8:00-10:00
Rozvrh MPR 2. termin: 2015-05-20  8:00-11:00
Rozvrh SPP 1. termin: 2015-05-20 10:00-12:00
Rozvrh IJC 2. termin: 2015-05-21  8:00-10:00
Rozvrh IKR 2. termin: 2015-05-21  8:00-10:00
Rozvrh INC 2. termin: 2015-05-21  8:00-12:00
Rozvrh PDS 2. termin: 2015-05-21  8:00-11:00
Rozvrh IDS 2. termin: 2015-05-22  8:00-11:00
Rozvrh FLP 2. termin: 2015-05-22  8:00-11:00
Rozvrh IPP 2. termin: 2015-05-25  8:00-11:00
Rozvrh IPR 3. termin: 2015-05-25 11:00-14:00
Rozvrh BIF 2. termin: 2015-05-25  8:00-10:00
Rozvrh POS 2. termin: 2015-05-25  8:00-11:00
Rozvrh VNV 2. termin: 2015-05-25  8:00-10:00
Rozvrh ISJ 2. termin: 2015-05-26  8:00-11:00
Rozvrh ARC 1. termin: 2015-05-26  8:00-10:00
Rozvrh KKO 1. termin: 2015-05-26 10:00-12:00
Rozvrh IBS 3. termin: 2015-05-27  8:00-10:00
Rozvrh IPK 2. termin: 2015-05-27 10:00-12:00
Rozvrh BIN 2. termin: 2015-05-27 11:00-13:00
Rozvrh MPR 3. termin: 2015-05-27  8:00-11:00
Rozvrh NAV 3. termin: 2015-05-27  8:00-10:00
Rozvrh PES 3. termin: 2015-05-27  8:00-11:00
Rozvrh IJC 3. termin: 2015-05-28  8:00-10:00
Rozvrh IKR 3. termin: 2015-05-28  8:00-10:00
Rozvrh INC 3. termin: 2015-05-28  8:00-12:00
Rozvrh EVO 1. termin: 2015-05-28  8:00-10:00
Rozvrh FYO 2. termin: 2015-05-28 10:00-12:00
Rozvrh KRY 1. termin: 2015-05-28 10:00-12:00
Rozvrh MUL 2. termin: 2015-05-28  8:00-10:00
Rozvrh NSB 2. termin: 2015-05-28  8:00-10:00
Rozvrh IDS 3. termin: 2015-05-29  8:00-11:00
Rozvrh FLP 3. termin: 2015-05-29  8:00-11:00
Rozvrh SPP 2. termin: 2015-05-29 11:00-13:00
Rozvrh IMA 2. termin: 2015-06-01 12:00-15:00
Rozvrh IPP 3. termin: 2015-06-01  8:00-11:00
Rozvrh AGS 3. termin: 2015-06-01  8:00-10:00
Rozvrh BIF 3. termin: 2015-06-01 10:00-12:00
Rozvrh IOS 2. termin: 2015-06-02  8:00-13:00
Rozvrh ISJ 3. termin: 2015-06-02  8:00-11:00
Rozvrh ARC 2. termin: 2015-06-02 11:00-13:00
Rozvrh KKO 2. termin: 2015-06-02 13:00-15:00
Rozvrh PDS 3. termin: 2015-06-02  8:00-11:00
Rozvrh IPK 3. termin: 2015-06-03 11:00-13:00
Rozvrh IZU 3. termin: 2015-06-03  8:00-11:00
Rozvrh BIN 3. termin: 2015-06-03 11:00-13:00
Rozvrh POS 3. termin: 2015-06-03  8:00-11:00
Rozvrh IFY 2. termin: 2015-06-04  9:00-11:00
Rozvrh ITP 2. termin: 2015-06-04  8:00-10:00
Rozvrh EVO 2. termin: 2015-06-04  8:00-10:00
Rozvrh GJA 2. termin: 2015-06-04 10:00-12:00
Rozvrh KRY 2. termin: 2015-06-04 12:00-14:00
Rozvrh MUL 3. termin: 2015-06-04  8:00-10:00
Rozvrh NSB 3. termin: 2015-06-04  8:00-10:00
Rozvrh ITS 2. termin: 2015-06-05  8:00-10:00
Rozvrh IZG 2. termin: 2015-06-05 10:00-12:00
Rozvrh GIS 2. termin: 2015-06-05  8:00-10:00
Rozvrh PIS 2. termin: 2015-06-05  8:00-10:00
Rozvrh SNT 2. termin: 2015-06-05 10:00-12:00
Rozvrh SPP 3. termin: 2015-06-08  8:00-10:00
Rozvrh ARC 3. termin: 2015-06-09  8:00-10:00
Rozvrh FYO 3. termin: 2015-06-09 10:00-12:00
Rozvrh KKO 3. termin: 2015-06-09 12:00-14:00
Rozvrh IMA 3. termin: 2015-06-10 12:00-15:00
Rozvrh VNV 3. termin: 2015-06-10  8:00-10:00
Rozvrh IOS 3. termin: 2015-06-11  8:00-13:00
Rozvrh ITP 3. termin: 2015-06-11 13:00-15:00
Rozvrh EVO 3. termin: 2015-06-11  8:00-10:00
Rozvrh GJA 3. termin: 2015-06-11 10:00-12:00
Rozvrh KRY 3. termin: 2015-06-11 12:00-14:00
Rozvrh IFY 3. termin: 2015-06-12  9:00-11:00
Rozvrh ITS 3. termin: 2015-06-12  8:00-10:00
Rozvrh IZG 3. termin: 2015-06-12 11:00-13:00
Rozvrh GIS 3. termin: 2015-06-12  8:00-10:00
Rozvrh PIS 3. termin: 2015-06-12  8:00-10:00
Rozvrh SNT 3. termin: 2015-06-12 10:00-12:00
10:5:27 - Celkova penalizace: 61
